Beyond Spreadsheets: R for MBAs
…
<       less than
<=      less than or equal to
>       greater than
>=      greater than or equal to
==      exactly equal to
!=      not equal to
!x      Not x
x | y   x OR y
x & y   x AND y

Example: Return a dataframe with only those rows where the neighborhood is Chelsea.

filter(df, neighborhood == "Chelsea")

## # A tibble: 796 x 44
##        id listing_url name  description host_id host_name host_since
##     <dbl> <chr>       <chr> <chr>       <chr>   <chr>     <date>    
##  1 2.08e7 https://ww~ Huge~ One of a k~ 6433797 Marlon    2013-05-17
##  2 3.27e7 https://ww~ Huge~ Larger tha~ 244559~ Stewart ~ 2019-02-21
##  3 3.40e7 https://ww~ Beau~ Beautiful ~ 234227~ Emma      2019-01-03
##  4 3.37e7 https://ww~ Midt~ This 158 s~ 252604~ Erin      2019-04-01
##  5 3.42e7 https://ww~ Amaz~ This wonde~ 174313~ Plamen    2018-02-20
##  6 1.87e6 https://ww~ Big ~ The big ro~ 9751988 Asuka     2013-11-01
##  7 3.27e7 https://ww~ Larg~ Looking fo~ 244559~ Stewart ~ 2019-02-21
##  8 1.37e7 https://ww~ Brig~ My light-f~ 803159~ Meghan    2016-06-27
##  9 1.95e6 https://ww~ 1BD ~ A cozy hom~ 100713~ Trevor    2013-11-17
## 10 1.91e7 https://ww~ Cozy~ Cozy Effic~ 829201~ Zach      2016-07-10
## # ... with 786 more rows, and 37 more variables: host_response_time <chr>,
## #   host_response_rate <dbl>, host_is_superhost <lgl>,
## #   host_total_listings_count <dbl>, host_verifications <chr>,
## #   host_identity_verified <lgl>, neighborhood <chr>, borough <chr>,
## #   zipcode <dbl>, property_type <fct>, accommodates <dbl>,
## #   bathrooms <dbl>, bedrooms <dbl>, beds <dbl>, bed_type <chr>,
## #   price <dbl>, security_deposit <dbl>, cleaning_fee <dbl>,
## #   guests_included <dbl>, extra_people <dbl>, minimum_nights <dbl>,
## #   calendar_updated <chr>, has_availability <lgl>,
…
You can combine multiple conditions.

Example: Return a dataframe with rows where the borough is Manhattan and the price is less than 50.

filter(df, borough == "Manhattan", price < 50)

## # A tibble: 520 x 44
##        id listing_url name  description host_id host_name host_since
##     <dbl> <chr>       <chr> <chr>       <chr>   <chr>     <date>    
##  1 3.27e7 https://ww~ Slee~ Traveling ~ 163749~ Brianna   2017-12-22
##  2 3.50e7 https://ww~ Big ~ My beautif~ 19342   Rivka     2009-05-29
##  3 2.18e7 https://ww~ Priv~ Come stay ~ 5742326 Dina      2013-04-02
##  4 1.40e7 https://ww~ Room~ My place i~ 759164~ Juan      2016-06-05
##  5 2.97e7 https://ww~ New ~ Traveling ~ 223248~ Julia     2018-10-29
##  6 3.41e7 https://ww~ Clea~ This listi~ 427679~ Shara     2015-08-28
##  7 8.34e5 https://ww~ Larg~ Great reno~ 4112404 Vero      2012-11-10
##  8 2.19e7 https://ww~ Spac~ Spacious a~ 505228~ Nora      2015-12-04
##  9 3.06e6 https://ww~ Furn~ $1035/mont~ 7101220 David     2013-06-25
## 10 5.36e6 https://ww~ Beau~ A spacious~ 277906~ Carl      2015-02-15
## # ... with 510 more rows, and 37 more variables: host_response_time <chr>,
## #   host_response_rate <dbl>, host_is_superhost <lgl>,
## #   host_total_listings_count <dbl>, host_verifications <chr>,
## #   host_identity_verified <lgl>, neighborhood <chr>, borough <chr>,
## #   zipcode <dbl>, property_type <fct>, accommodates <dbl>,
## #   bathrooms <dbl>, bedrooms <dbl>, beds <dbl>, bed_type <chr>,
## #   price <dbl>, security_deposit <dbl>, cleaning_fee <dbl>,
## #   guests_included <dbl>, extra_people <dbl>, minimum_nights <dbl>,
## #   calendar_updated <chr>, has_availability <lgl>,
## #   availability_365 <dbl>, number_of_reviews <dbl>,
## #   number_of_reviews_ltm <dbl>, review_scores_rating <dbl>,
## #   review_scores_accuracy <dbl>, review_scores_cleanliness <dbl>,
## #   review_scores_checkin <dbl>, review_scores_communication <dbl>,
## #   review_scores_location <dbl>, review_scores_value <dbl>,
## #   instant_bookable <lgl>, is_business_travel_ready <lgl>,
## #   cancellation_policy <chr>, reviews_per_month <dbl>

Example: Return a dataframe with rows where cancellation_policy is flexible or accommodates more than 2.

filter(df, cancellation_policy == "flexible" | accommodates > 2 )

## # A tibble: 21,439 x 44
##        id listing_url name  description host_id host_name host_since
##     <dbl> <chr>       <chr> <chr>       <chr>   <chr>     <date>    
##  1 1.93e6 https://ww~ Subl~ $490/week.~ 2765870 Amarie21~ 2012-06-27
##  2 4.24e6 https://ww~ Sunn~ It's a sma~ 782008  Lori      2011-07-05
##  3 8.81e6 https://ww~ Spac~ Loft room ~ 133181~ Rebecca   2014-03-19
##  4 9.21e6 https://ww~ Clea~ Its a spar~ 478863~ Megan     2015-11-01
##  5 9.35e6 https://ww~ Cute~ This is a ~ 393330~ XiWei     2015-07-23
##  6 9.73e6 https://ww~ 2nd ~ Comfortabl~ 149742~ Gabriel   2014-05-01
##  7 1.40e7 https://ww~ Cozy~ My place i~ 834766~ Carmen    2016-07-13
##  8 1.42e7 https://ww~ Peac~ "I will be~ 3602785 James     2012-09-18
##  9 1.62e7 https://ww~ 1 Be~ The Wyndha~ 695458~ Chayla    2016-04-29
## 10 1.90e7 https://ww~ Bush~ A cute com~ 604942~ Breanna   2016-02-26
## # ... with 21,429 more rows, and 37 more variables:
## #   host_response_time <chr>, host_response_rate <dbl>,
## #   host_is_superhost <lgl>, host_total_listings_count <dbl>,
## #   host_verifications <chr>, host_identity_verified <lgl>,
## #   neighborhood <chr>, borough <chr>, zipcode <dbl>, property_type <fct>,
## #   accommodates <dbl>, bathrooms <dbl>, bedrooms <dbl>, beds <dbl>,
## #   bed_type <chr>, price <dbl>, security_deposit <dbl>,
## #   cleaning_fee <dbl>, guests_included <dbl>, extra_people <dbl>,
## #   minimum_nights <dbl>, calendar_updated <chr>, has_availability <lgl>,
## #   availability_365 <dbl>, number_of_reviews <dbl>,
## #   number_of_reviews_ltm <dbl>, review_scores_rating <dbl>,
## #   review_scores_accuracy <dbl>, review_scores_cleanliness <dbl>,
## #   review_scores_checkin <dbl>, review_scores_communication <dbl>,
## #   review_scores_location <dbl>, review_scores_value <dbl>,
## #   instant_bookable <lgl>, is_business_travel_ready <lgl>,
## #   cancellation_policy <chr>, reviews_per_month <dbl>

Example: Return a dataframe with rows where number_of_reviews is not 0

filter(df, number_of_reviews != 0)

## # A tibble: 37,762 x 44
##        id listing_url name  description host_id host_name host_since
##     <dbl> <chr>       <chr> <chr>       <chr>   <chr>     <date>    
##  1 1.93e6 https://ww~ Subl~ $490/week.~ 2765870 Amarie21~ 2012-06-27
##  2 4.24e6 https://ww~ Sunn~ It's a sma~ 782008  Lori      2011-07-05
##  3 6.03e6 https://ww~ Priv~ - Private ~ 6396863 Tianhui   2013-05-14
##  4 6.89e6 https://ww~ Priv~ Our Hamilt~ 110810~ Rob       2014-01-06
##  5 8.81e6 https://ww~ Spac~ Loft room ~ 133181~ Rebecca   2014-03-19
##  6 9.21e6 https://ww~ Clea~ Its a spar~ 478863~ Megan     2015-11-01
##  7 9.35e6 https://ww~ Cute~ This is a ~ 393330~ XiWei     2015-07-23
##  8 9.51e6 https://ww~ Apar~ I only ren~ 492863~ Tairan    2015-11-17
##  9 9.73e6 https://ww~ 2nd ~ Comfortabl~ 149742~ Gabriel   2014-05-01
## 10 1.40e7 https://ww~ Cozy~ My place i~ 834766~ Carmen    2016-07-13
## # ... with 37,752 more rows, and 37 more variables:
## #   host_response_time <chr>, host_response_rate <dbl>,
## #   host_is_superhost <lgl>, host_total_listings_count <dbl>,
## #   host_verifications <chr>, host_identity_verified <lgl>,
## #   neighborhood <chr>, borough <chr>, zipcode <dbl>, property_type <fct>,
## #   accommodates <dbl>, bathrooms <dbl>, bedrooms <dbl>, beds <dbl>,
## #   bed_type <chr>, price <dbl>, security_deposit <dbl>,
## #   cleaning_fee <dbl>, guests_included <dbl>, extra_people <dbl>,
## #   minimum_nights <dbl>, calendar_updated <chr>, has_availability <lgl>,
…
The syntax is: select(name_of_dataframe, name_of_column1, name_of_column2, ...)

There are some variations to this syntax, which come in handy in certain situations.

If you want all columns except one: select(name_of_dataframe, -column_to_exclude)

If you want all columns except two: select(name_of_dataframe, -c(column_to_exlude1, column_to_exclue2))

If you want the third through eighth columns: select(name_of_dataframe, 3:8)

Example: Return a dataframe with only the listing_url column.

select(df, listing_url)

## # A tibble: 37,762 x 1
##    listing_url                          
##    <chr>                                
##  1 https://www.airbnb.com/rooms/1925519 
##  2 https://www.airbnb.com/rooms/4244476 
##  3 https://www.airbnb.com/rooms/6031895 
##  4 https://www.airbnb.com/rooms/6887405 
##  5 https://www.airbnb.com/rooms/8807842 
##  6 https://www.airbnb.com/rooms/9207023 
##  7 https://www.airbnb.com/rooms/9345523 
##  8 https://www.airbnb.com/rooms/9511685 
##  9 https://www.airbnb.com/rooms/9732432 
## 10 https://www.airbnb.com/rooms/13987276
## # ... with 37,752 more rows

Example: Return a dataframe with columns host_response_time, cancellation_policy, and neighborhood.

select(df, host_response_time, cancellation_policy, neighborhood)

## # A tibble: 37,762 x 3
##    host_response_time cancellation_policy neighborhood    
##    <chr>              <chr>               <chr>           
##  1 N/A                flexible            Lower East Side 
##  2 N/A                flexible            Greenpoint      
##  3 N/A                moderate            Theater District
##  4 N/A                moderate            Harlem          
##  5 N/A                flexible            Williamsburg    
##  6 N/A                flexible            Midwood         
##  7 N/A                flexible            East Village    
##  8 N/A                moderate            Stuyvesant Town 
##  9 N/A                flexible            Bushwick        
## 10 N/A                flexible            Harlem          
## # ... with 37,752 more rows

Example: Return a dataframe with second through fourth columns

select(df, 2:4)

## # A tibble: 37,762 x 3
##    listing_url           name              description                     
##    <chr>                 <chr>             <chr>                           
##  1 https://www.airbnb.c~ Sublet: $490/Wk   $490/week. Huge 1 bedroom / 2bd~
##  2 https://www.airbnb.c~ Sunny and Funky ~ It's a smaller room with an des~
##  3 https://www.airbnb.c~ Private Bedroom ~ - Private bedroom in 2 person a~
##  4 https://www.airbnb.c~ Private Room in ~ Our Hamilton Heights 3BR featur~
##  5 https://www.airbnb.c~ Spacious arty lo~ Loft room in a spacious apartme~
##  6 https://www.airbnb.c~ Clean private ro~ Its a spare bedroom with lots o~
##  7 https://www.airbnb.c~ Cute Private Bed~ This is a private bedroom in a ~
##  8 https://www.airbnb.c~ Apartment in Stu~ I only rent my room for my apar~
##  9 https://www.airbnb.c~ 2nd floor bedroo~ Comfortable bedroom in a recent~
## 10 https://www.airbnb.c~ Cozy, two bedroo~ My place is close to Harlem Pub~
## # ... with 37,752 more rows
…
Similarly,

select(df, price, review_scores_rating, listing_url)

## # A tibble: 37,762 x 3
##    price review_scores_rating listing_url                          
##    <dbl>                <dbl> <chr>                                
##  1    80                   20 https://www.airbnb.com/rooms/1925519 
##  2    75                   20 https://www.airbnb.com/rooms/4244476 
##  3    60                   20 https://www.airbnb.com/rooms/6031895 
##  4    50                   20 https://www.airbnb.com/rooms/6887405 
##  5    50                   20 https://www.airbnb.com/rooms/8807842 
##  6    50                   20 https://www.airbnb.com/rooms/9207023 
##  7    85                   20 https://www.airbnb.com/rooms/9345523 
##  8    80                   20 https://www.airbnb.com/rooms/9511685 
##  9    35                   20 https://www.airbnb.com/rooms/9732432 
## 10   150                   20 https://www.airbnb.com/rooms/13987276
## # ... with 37,752 more rows

is the same as

df %>% select(price, review_scores_rating, listing_url)

## # A tibble: 37,762 x 3
##    price review_scores_rating listing_url                          
##    <dbl>                <dbl> <chr>                                
##  1    80                   20 https://www.airbnb.com/rooms/1925519 
##  2    75                   20 https://www.airbnb.com/rooms/4244476 
##  3    60                   20 https://www.airbnb.com/rooms/6031895 
##  4    50                   20 https://www.airbnb.com/rooms/6887405 
##  5    50                   20 https://www.airbnb.com/rooms/8807842 
##  6    50                   20 https://www.airbnb.com/rooms/9207023 
##  7    85                   20 https://www.airbnb.com/rooms/9345523 
##  8    80                   20 https://www.airbnb.com/rooms/9511685 
##  9    35                   20 https://www.airbnb.com/rooms/9732432 
## 10   150                   20 https://www.airbnb.com/rooms/13987276
## # ... with 37,752 more rows
…
🏏 Return the whole dataframe df, in descending order of number of bedrooms and where number of bedrooms are equal, descending order of review_scores_rating

Verb: mutate

mutate creates a new column by modifying one or more existing columns. It’s better explained by examples.

Example:

mutate(df, price_per_person = price / accommodates)

## # A tibble: 37,762 x 45
##        id listing_url name  description host_id host_name host_since
##     <dbl> <chr>       <chr> <chr>       <chr>   <chr>     <date>    
##  1 1.93e6 https://ww~ Subl~ $490/week.~ 2765870 Amarie21~ 2012-06-27
##  2 4.24e6 https://ww~ Sunn~ It's a sma~ 782008  Lori      2011-07-05
##  3 6.03e6 https://ww~ Priv~ - Private ~ 6396863 Tianhui   2013-05-14
##  4 6.89e6 https://ww~ Priv~ Our Hamilt~ 110810~ Rob       2014-01-06
##  5 8.81e6 https://ww~ Spac~ Loft room ~ 133181~ Rebecca   2014-03-19
##  6 9.21e6 https://ww~ Clea~ Its a spar~ 478863~ Megan     2015-11-01
##  7 9.35e6 https://ww~ Cute~ This is a ~ 393330~ XiWei     2015-07-23
##  8 9.51e6 https://ww~ Apar~ I only ren~ 492863~ Tairan    2015-11-17
##  9 9.73e6 https://ww~ 2nd ~ Comfortabl~ 149742~ Gabriel   2014-05-01
## 10 1.40e7 https://ww~ Cozy~ My place i~ 834766~ Carmen    2016-07-13
## # ... with 37,752 more rows, and 38 more variables:
## #   host_response_time <chr>, host_response_rate <dbl>,
## #   host_is_superhost <lgl>, host_total_listings_count <dbl>,
## #   host_verifications <chr>, host_identity_verified <lgl>,
## #   neighborhood <chr>, borough <chr>, zipcode <dbl>, property_type <fct>,
## #   accommodates <dbl>, bathrooms <dbl>, bedrooms <dbl>, beds <dbl>,
## #   bed_type <chr>, price <dbl>, security_deposit <dbl>,
## #   cleaning_fee <dbl>, guests_included <dbl>, extra_people <dbl>,
## #   minimum_nights <dbl>, calendar_updated <chr>, has_availability <lgl>,
…
🏏 Do the same as above but only for listings where price is more than 500 and property_type is Apartment.

Example: In Manhattan, which neighborhood has the highest mean price?*

df %>%
  filter(borough == "Manhattan") %>% 
  group_by(neighborhood) %>% 
  summarize(mean_price = mean(price)) %>% 
  arrange(desc(mean_price))

## # A tibble: 32 x 2
##    neighborhood       mean_price
##    <chr>                   <dbl>
##  1 Tribeca                  462.
##  2 NoHo                     297.
##  3 Flatiron District        296.
##  4 SoHo                     262.
##  5 Midtown                  258.
##  6 West Village             245.
##  7 Financial District       236.
##  8 Greenwich Village        234.
##  9 Theater District         231.
## 10 Nolita                   227.
## # ... with 22 more rows
…
